#FIG 3.2  Produced by xfig version 3.2.7
Landscape
Center
Inches
Letter
100.00
Single
-2
1200 2
2 1 0 1 0 7 50 -1 -1 0.000 0 0 -1 0 0 2
	 3750 3000 4650 3000
2 1 0 1 0 7 50 -1 -1 0.000 0 0 -1 0 0 2
	 3750 3150 4650 3150
2 1 0 1 0 7 50 -1 -1 0.000 0 0 -1 0 0 2
	 3750 3300 4200 3300
2 1 0 1 0 7 50 -1 -1 0.000 0 0 -1 0 0 2
	 3900 3900 4650 3900
2 1 0 1 0 7 50 -1 -1 0.000 0 0 -1 0 0 2
	 3750 4050 4650 4050
2 1 0 1 0 7 50 -1 -1 0.000 0 0 -1 0 0 2
	 3750 4200 4650 4200
2 1 0 1 0 7 50 -1 -1 0.000 0 0 -1 0 0 2
	 3750 4350 4650 4350
2 2 0 1 0 7 50 -1 -1 0.000 0 0 -1 0 0 5
	 3825 3450 4575 3450 4575 3750 3825 3750 3825 3450
2 1 0 1 0 7 50 -1 -1 0.000 0 0 -1 0 0 8
	 3825 3675 3975 3675 3975 3525 4125 3525 4125 3675 4350 3675
	 4350 3600 4575 3600
2 2 0 1 0 7 50 -1 -1 0.000 0 0 -1 0 0 5
	 3450 2700 4950 2700 4950 4650 3450 4650 3450 2700
2 2 0 1 0 7 50 -1 -1 0.000 0 0 -1 0 0 5
	 8100 3900 8100 5400 6150 5400 6150 3900 8100 3900
2 2 0 1 0 7 50 -1 -1 0.000 0 0 -1 0 0 5
	 8100 2100 8100 3600 6150 3600 6150 2100 8100 2100
2 1 0 1 0 7 50 -1 -1 0.000 0 0 -1 0 0 2
	 6450 2325 7800 2325
2 1 0 1 0 7 50 -1 -1 0.000 0 0 -1 0 0 2
	 6450 2550 7800 2550
2 1 0 1 0 7 50 -1 -1 0.000 0 0 -1 0 0 2
	 6450 2775 7350 2775
2 1 0 1 0 7 50 -1 -1 0.000 0 0 -1 0 0 8
	 6600 3300 6825 3300 6825 3075 7050 3075 7050 3300 7350 3300
	 7350 3150 7650 3150
2 2 0 1 0 7 50 -1 -1 0.000 0 0 -1 0 0 5
	 6600 3000 7650 3000 7650 3375 6600 3375 6600 3000
2 1 0 1 0 7 50 -1 -1 0.000 0 0 -1 0 0 4
	 6600 4125 6600 4275 7650 4275 7650 4125
2 1 0 1 0 7 50 -1 -1 0.000 0 0 -1 0 0 3
	 6600 4200 6825 4200 6825 4125
2 1 0 1 0 7 50 -1 -1 0.000 0 0 -1 0 0 4
	 7050 4125 7050 4200 7350 4200 7350 4125
2 1 0 1 0 7 50 -1 -1 0.000 0 0 -1 0 0 2
	 6675 4500 7800 4500
2 1 0 1 0 7 50 -1 -1 0.000 0 0 -1 0 0 2
	 6450 4725 7800 4725
2 1 0 1 0 7 50 -1 -1 0.000 0 0 -1 0 0 2
	 6450 4950 7800 4950
2 1 0 1 0 7 50 -1 -1 0.000 0 0 -1 0 0 2
	 6450 5175 7800 5175
2 3 0 1 0 7 50 -1 -1 0.000 0 0 -1 0 0 9
	 5250 3600 5325 3750 5250 3900 5550 3825 5550 4050 5850 3750
	 5550 3450 5550 3675 5250 3600
