#FIG 3.2  Produced by xfig version 3.2.8
Landscape
Center
Inches
Letter
100.00
Single
-2
1200 2
6 6675 2850 7575 4200
2 1 0 1 0 7 50 -1 -1 0.000 0 0 -1 0 0 2
	 6675 2850 7575 2850
2 1 0 1 0 7 50 -1 -1 0.000 0 0 -1 0 0 2
	 6675 3000 7575 3000
2 1 0 1 0 7 50 -1 -1 0.000 0 0 -1 0 0 2
	 6675 3150 7125 3150
2 1 0 1 0 7 50 -1 -1 0.000 0 0 -1 0 0 2
	 6825 3750 7575 3750
2 1 0 1 0 7 50 -1 -1 0.000 0 0 -1 0 0 2
	 6675 3900 7575 3900
2 1 0 1 0 7 50 -1 -1 0.000 0 0 -1 0 0 2
	 6675 4050 7575 4050
2 1 0 1 0 7 50 -1 -1 0.000 0 0 -1 0 0 2
	 6675 4200 7575 4200
2 2 0 1 0 7 50 -1 -1 0.000 0 0 -1 0 0 5
	 6750 3300 7500 3300 7500 3600 6750 3600 6750 3300
2 1 0 1 0 7 50 -1 -1 0.000 0 0 -1 0 0 8
	 6750 3525 6900 3525 6900 3375 7050 3375 7050 3525 7275 3525
	 7275 3450 7500 3450
-6
2 2 0 1 0 7 50 -1 -1 0.000 0 0 -1 0 0 5
	 6150 2700 7650 2700 7650 4650 6150 4650 6150 2700
2 1 0 1 0 7 50 -1 -1 0.000 0 0 -1 0 0 2
	 3750 3000 4650 3000
2 1 0 1 0 7 50 -1 -1 0.000 0 0 -1 0 0 2
	 3750 3150 4650 3150
2 1 0 1 0 7 50 -1 -1 0.000 0 0 -1 0 0 2
	 3750 3300 4200 3300
2 1 0 1 0 7 50 -1 -1 0.000 0 0 -1 0 0 2
	 3900 3900 4650 3900
2 1 0 1 0 7 50 -1 -1 0.000 0 0 -1 0 0 2
	 3750 4050 4650 4050
2 1 0 1 0 7 50 -1 -1 0.000 0 0 -1 0 0 2
	 3750 4200 4650 4200
2 1 0 1 0 7 50 -1 -1 0.000 0 0 -1 0 0 2
	 3750 4350 4650 4350
2 2 0 1 0 7 50 -1 -1 0.000 0 0 -1 0 0 5
	 3825 3450 4575 3450 4575 3750 3825 3750 3825 3450
2 1 0 1 0 7 50 -1 -1 0.000 0 0 -1 0 0 8
	 3825 3675 3975 3675 3975 3525 4125 3525 4125 3675 4350 3675
	 4350 3600 4575 3600
2 2 0 1 0 7 50 -1 -1 0.000 0 0 -1 0 0 5
	 3450 2700 4950 2700 4950 4650 3450 4650 3450 2700
2 3 0 1 0 7 50 -1 -1 0.000 0 0 -1 0 0 9
	 5250 3450 5325 3600 5250 3750 5550 3675 5550 3900 5850 3600
	 5550 3300 5550 3525 5250 3450
